{"code":200,"msg":"success","data":{"records":[{"_id":"692e8e7135a9e9b1afa172a2","Date":"2025-12-02","Close":31125.0,"High":31125.0,"Low":31125.0,"Open":31125.0,"Volume":0,"created_at":"2025-12-02 15:00:01","product_type":"C5TC","updated_at":"2025-12-02 15:00:01"},{"_id":"692d3cf035a9e9b1afa171d3","Date":"2025-12-01","Close":30975.0,"High":31250.0,"Low":30125.0,"Open":30125.0,"Volume":0,"created_at":"2025-12-02 15:00:01","product_type":"C5TC","updated_at":"2025-12-02 15:00:01"},{"_id":"692972a135a9e9b1afa17128","Date":"2025-11-28","Close":30125.0,"High":30375.0,"Low":29800.0,"Open":29800.0,"Volume":0,"created_at":"2025-12-02 15:00:01","product_type":"C5TC","updated_at":"2025-12-02 15:00:01"},{"_id":"6927f6f135a9e9b1afa17027","Date":"2025-11-27","Close":29750.0,"High":29750.0,"Low":29200.0,"Open":29475.0,"Volume":0,"created_at":"2025-12-02 15:00:01","product_type":"C5TC","updated_at":"2025-12-02 15:00:01"},{"_id":"6926a57135a9e9b1afa16f33","Date":"2025-11-26","Close":28375.0,"High":28900.0,"Low":28375.0,"Open":28600.0,"Volume":0,"created_at":"2025-12-02 15:00:01","product_type":"C5TC","updated_at":"2025-12-02 15:00:01"},{"_id":"69257e2135a9e9b1afa16e71","Date":"2025-11-25","Close":28375.0,"High":28375.0,"Low":27375.0,"Open":27500.0,"Volume":0,"created_at":"2025-12-02 15:00:01","product_type":"C5TC","updated_at":"2025-12-02 15:00:01"},{"_id":"69242ca135a9e9b1afa16d8e","Date":"2025-11-24","Close":27375.0,"High":27425.0,"Low":26875.0,"Open":27125.0,"Volume":0,"created_at":"2025-12-02 15:00:01","product_type":"C5TC","updated_at":"2025-12-02 15:00:01"},{"_id":"6920382135a9e9b1afa15c96","Date":"2025-11-21","Close":27275.0,"High":27300.0,"Low":26575.0,"Open":27300.0,"Volume":0,"created_at":"2025-12-02 15:00:01","product_type":"C5TC","updated_at":"2025-12-02 15:00:01"},{"_id":"691ee6a135a9e9b1afa1507c","Date":"2025-11-20","Close":27225.0,"High":27375.0,"Low":26200.0,"Open":26450.0,"Volume":0,"created_at":"2025-12-02 15:00:01","product_type":"C5TC","updated_at":"2025-12-02 15:00:01"},{"_id":"691d952135a9e9b1afa134d2","Date":"2025-11-19","Close":26875.0,"High":27700.0,"Low":26650.0,"Open":27650.0,"Volume":0,"created_at":"2025-12-02 15:00:01","product_type":"C5TC","updated_at":"2025-12-02 15:00:01"},{"_id":"691c197135a9e9b1afa1268e","Date":"2025-11-18","Close":27650.0,"High":27875.0,"Low":27125.0,"Open":27125.0,"Volume":0,"created_at":"2025-12-02 15:00:01","product_type":"C5TC","updated_at":"2025-12-02 15:00:01"},{"_id":"691af22035a9e9b1afa10542","Date":"2025-11-17","Close":26350.0,"High":26650.0,"Low":25750.0,"Open":26225.0,"Volume":0,"created_at":"2025-12-02 15:00:01","product_type":"C5TC","updated_at":"2025-12-02 15:00:01"},{"_id":"6916fda035a9e9b1afa095bd","Date":"2025-11-14","Close":25925.0,"High":26375.0,"Low":25625.0,"Open":26350.0,"Volume":0,"created_at":"2025-12-02 15:00:01","product_type":"C5TC","updated_at":"2025-12-02 15:00:01"},{"_id":"6915a4fb35a9e9b1afa094b9","Date":"2025-11-13","Close":26000.0,"High":26175.0,"Low":25250.0,"Open":25250.0,"Volume":0,"created_at":"2025-12-02 15:00:01","product_type":"C5TC","updated_at":"2025-12-02 15:00:01"},{"_id":"6915a4fb35a9e9b1afa094b8","Date":"2025-11-12","Close":24875.0,"High":25000.0,"Low":24325.0,"Open":25000.0,"Volume":0,"created_at":"2025-12-02 15:00:01","product_type":"C5TC","updated_at":"2025-12-02 15:00:01"},{"_id":"6915a4fb35a9e9b1afa094b7","Date":"2025-11-11","Close":24825.0,"High":25450.0,"Low":24625.0,"Open":25450.0,"Volume":0,"created_at":"2025-12-02 15:00:01","product_type":"C5TC","updated_at":"2025-12-02 15:00:01"},{"_id":"6915a4fb35a9e9b1afa094b6","Date":"2025-11-10","Close":25275.0,"High":25625.0,"Low":24950.0,"Open":25125.0,"Volume":0,"created_at":"2025-12-02 15:00:01","product_type":"C5TC","updated_at":"2025-12-02 15:00:01"},{"_id":"6915a4fb35a9e9b1afa094b5","Date":"2025-11-07","Close":25425.0,"High":25875.0,"Low":25375.0,"Open":25875.0,"Volume":0,"created_at":"2025-12-02 15:00:01","product_type":"C5TC","updated_at":"2025-12-02 15:00:01"},{"_id":"6915a4fb35a9e9b1afa094b4","Date":"2025-11-06","Close":26175.0,"High":26275.0,"Low":25750.0,"Open":25750.0,"Volume":0,"created_at":"2025-12-02 15:00:01","product_type":"C5TC","updated_at":"2025-12-02 15:00:01"},{"_id":"6915a4fb35a9e9b1afa094b3","Date":"2025-11-05","Close":25625.0,"High":25925.0,"Low":25175.0,"Open":25175.0,"Volume":0,"created_at":"2025-12-02 15:00:01","product_type":"C5TC","updated_at":"2025-12-02 15:00:01"},{"_id":"6915a4fb35a9e9b1afa094b2","Date":"2025-11-04","Close":25250.0,"High":25425.0,"Low":24650.0,"Open":24650.0,"Volume":0,"created_at":"2025-12-02 15:00:01","product_type":"C5TC","updated_at":"2025-12-02 15:00:01"},{"_id":"6915a4fb35a9e9b1afa094b1","Date":"2025-11-03","Close":24375.0,"High":25125.0,"Low":24375.0,"Open":25125.0,"Volume":0,"created_at":"2025-12-02 15:00:01","product_type":"C5TC","updated_at":"2025-12-02 15:00:01"},{"_id":"6915a4fb35a9e9b1afa094b0","Date":"2025-10-31","Close":25100.0,"High":25625.0,"Low":25000.0,"Open":25625.0,"Volume":0,"created_at":"2025-12-02 15:00:01","product_type":"C5TC","updated_at":"2025-12-02 15:00:01"},{"_id":"69030cf1a807e600e519a0bd","Date":"2025-10-30","Close":25937.5,"High":25937.5,"Low":25150.0,"Open":25725.0,"Volume":0,"created_at":"2025-12-02 15:00:01","product_type":"C5TC","updated_at":"2025-12-02 15:00:01"},{"_id":"6901e5a1a807e600e5191756","Date":"2025-10-29","Close":25475.0,"High":25475.0,"Low":24550.0,"Open":24675.0,"Volume":0,"created_at":"2025-12-02 15:00:01","product_type":"C5TC","updated_at":"2025-12-02 15:00:01"},{"_id":"6900747da807e600e5191284","Date":"2025-10-28","Close":24325.0,"High":24325.0,"Low":23750.0,"Open":24000.0,"Volume":0,"created_at":"2025-12-02 15:00:01","product_type":"C5TC","updated_at":"2025-12-02 15:00:01"},{"_id":"68ff42a1a807e600e51911ff","Date":"2025-10-27","Close":23950.0,"High":25075.0,"Low":23875.0,"Open":24875.0,"Volume":0,"created_at":"2025-12-02 15:00:01","product_type":"C5TC","updated_at":"2025-12-02 15:00:01"},{"_id":"68fb7775a807e600e5190f6a","Date":"2025-10-24","Close":24675.0,"High":24775.0,"Low":23975.0,"Open":24500.0,"Volume":0,"created_at":"2025-12-02 15:00:01","product_type":"C5TC","updated_at":"2025-12-02 15:00:01"},{"_id":"68fb7775a807e600e5190f69","Date":"2025-10-23","Close":24150.0,"High":25250.0,"Low":24125.0,"Open":25125.0,"Volume":0,"created_at":"2025-12-02 15:00:01","product_type":"C5TC","updated_at":"2025-12-02 15:00:01"},{"_id":"68fb7775a807e600e5190f68","Date":"2025-10-22","Close":25200.0,"High":26250.0,"Low":25175.0,"Open":26250.0,"Volume":0,"created_at":"2025-12-02 15:00:01","product_type":"C5TC","updated_at":"2025-12-02 15:00:01"},{"_id":"68fb7775a807e600e5190f67","Date":"2025-10-21","Close":26100.0,"High":26125.0,"Low":26000.0,"Open":26125.0,"Volume":0,"created_at":"2025-12-02 15:00:01","product_type":"C5TC","updated_at":"2025-12-02 15:00:01"},{"_id":"68fb7775a807e600e5190f66","Date":"2025-10-20","Close":26025.0,"High":26025.0,"Low":25400.0,"Open":25750.0,"Volume":0,"created_at":"2025-12-02 15:00:00","product_type":"C5TC","updated_at":"2025-12-02 15:00:00"},{"_id":"68fb7775a807e600e5190f65","Date":"2025-10-17","Close":25725.0,"High":26000.0,"Low":25500.0,"Open":26000.0,"Volume":0,"created_at":"2025-12-02 15:00:00","product_type":"C5TC","updated_at":"2025-12-02 15:00:00"},{"_id":"68fb7775a807e600e5190f64","Date":"2025-10-16","Close":25875.0,"High":26250.0,"Low":25750.0,"Open":26200.0,"Volume":0,"created_at":"2025-12-02 15:00:00","product_type":"C5TC","updated_at":"2025-12-02 15:00:00"},{"_id":"68fb7775a807e600e5190f63","Date":"2025-10-15","Close":26000.0,"High":26000.0,"Low":24975.0,"Open":25250.0,"Volume":0,"created_at":"2025-12-02 15:00:00","product_type":"C5TC","updated_at":"2025-12-02 15:00:00"},{"_id":"68fb7775a807e600e5190f62","Date":"2025-10-14","Close":25000.0,"High":25750.0,"Low":24250.0,"Open":25500.0,"Volume":0,"created_at":"2025-12-02 15:00:00","product_type":"C5TC","updated_at":"2025-12-02 15:00:00"},{"_id":"68fb7775a807e600e5190f61","Date":"2025-10-13","Close":26525.0,"High":28000.0,"Low":26375.0,"Open":28000.0,"Volume":0,"created_at":"2025-12-02 15:00:00","product_type":"C5TC","updated_at":"2025-12-02 15:00:00"},{"_id":"68fb7775a807e600e5190f60","Date":"2025-10-10","Close":25750.0,"High":25800.0,"Low":24000.0,"Open":24000.0,"Volume":0,"created_at":"2025-12-02 15:00:00","product_type":"C5TC","updated_at":"2025-12-02 15:00:00"},{"_id":"68fb7775a807e600e5190f5f","Date":"2025-10-09","Close":24200.0,"High":24200.0,"Low":23750.0,"Open":23750.0,"Volume":0,"created_at":"2025-12-02 15:00:00","product_type":"C5TC","updated_at":"2025-12-02 15:00:00"},{"_id":"68fb7775a807e600e5190f5e","Date":"2025-10-08","Close":24000.0,"High":25300.0,"Low":23750.0,"Open":25000.0,"Volume":0,"created_at":"2025-12-02 15:00:00","product_type":"C5TC","updated_at":"2025-12-02 15:00:00"},{"_id":"68fb7775a807e600e5190f5d","Date":"2025-10-07","Close":25175.0,"High":25175.0,"Low":24975.0,"Open":24975.0,"Volume":0,"created_at":"2025-12-02 15:00:00","product_type":"C5TC","updated_at":"2025-12-02 15:00:00"},{"_id":"68fb7775a807e600e5190f5c","Date":"2025-10-06","Close":24650.0,"High":24875.0,"Low":23900.0,"Open":24300.0,"Volume":0,"created_at":"2025-12-02 15:00:00","product_type":"C5TC","updated_at":"2025-12-02 15:00:00"},{"_id":"68fb7775a807e600e5190f5b","Date":"2025-10-03","Close":24000.0,"High":24425.0,"Low":23750.0,"Open":23750.0,"Volume":0,"created_at":"2025-12-02 15:00:00","product_type":"C5TC","updated_at":"2025-12-02 15:00:00"},{"_id":"68fb7775a807e600e5190f5a","Date":"2025-10-02","Close":23975.0,"High":24125.0,"Low":23475.0,"Open":23475.0,"Volume":0,"created_at":"2025-12-02 15:00:00","product_type":"C5TC","updated_at":"2025-12-02 15:00:00"},{"_id":"68fb7775a807e600e5190f59","Date":"2025-10-01","Close":23375.0,"High":23625.0,"Low":22875.0,"Open":23000.0,"Volume":0,"created_at":"2025-12-02 15:00:00","product_type":"C5TC","updated_at":"2025-12-02 15:00:00"},{"_id":"68fb7775a807e600e5190f58","Date":"2025-09-30","Close":23150.0,"High":23150.0,"Low":22500.0,"Open":23000.0,"Volume":0,"created_at":"2025-12-02 15:00:00","product_type":"C5TC","updated_at":"2025-12-02 15:00:00"},{"_id":"68fb7775a807e600e5190f57","Date":"2025-09-29","Close":23300.0,"High":23525.0,"Low":22925.0,"Open":23500.0,"Volume":0,"created_at":"2025-12-02 15:00:00","product_type":"C5TC","updated_at":"2025-12-02 15:00:00"},{"_id":"68fb7775a807e600e5190f56","Date":"2025-09-26","Close":23725.0,"High":23750.0,"Low":23625.0,"Open":23750.0,"Volume":0,"created_at":"2025-12-02 15:00:00","product_type":"C5TC","updated_at":"2025-12-02 15:00:00"},{"_id":"68fb7775a807e600e5190f55","Date":"2025-09-25","Close":23925.0,"High":24450.0,"Low":23925.0,"Open":24375.0,"Volume":0,"created_at":"2025-12-02 15:00:00","product_type":"C5TC","updated_at":"2025-12-02 15:00:00"},{"_id":"68fb7775a807e600e5190f54","Date":"2025-09-24","Close":24525.0,"High":24800.0,"Low":24425.0,"Open":24700.0,"Volume":0,"created_at":"2025-12-02 15:00:00","product_type":"C5TC","updated_at":"2025-12-02 15:00:00"},{"_id":"68fb7775a807e600e5190f53","Date":"2025-09-23","Close":24750.0,"High":24875.0,"Low":24450.0,"Open":24450.0,"Volume":0,"created_at":"2025-12-02 15:00:00","product_type":"C5TC","updated_at":"2025-12-02 15:00:00"},{"_id":"68fb7775a807e600e5190f52","Date":"2025-09-22","Close":24225.0,"High":24625.0,"Low":23975.0,"Open":24475.0,"Volume":0,"created_at":"2025-12-02 15:00:00","product_type":"C5TC","updated_at":"2025-12-02 15:00:00"},{"_id":"68fb7775a807e600e5190f51","Date":"2025-09-19","Close":24575.0,"High":24575.0,"Low":24250.0,"Open":24500.0,"Volume":0,"created_at":"2025-12-02 15:00:00","product_type":"C5TC","updated_at":"2025-12-02 15:00:00"},{"_id":"68fb7775a807e600e5190f50","Date":"2025-09-18","Close":24425.0,"High":24700.0,"Low":24375.0,"Open":24700.0,"Volume":0,"created_at":"2025-12-02 15:00:00","product_type":"C5TC","updated_at":"2025-12-02 15:00:00"},{"_id":"68fb7775a807e600e5190f4f","Date":"2025-09-17","Close":24500.0,"High":24750.0,"Low":24325.0,"Open":24625.0,"Volume":0,"created_at":"2025-12-02 15:00:00","product_type":"C5TC","updated_at":"2025-12-02 15:00:00"},{"_id":"68fb7775a807e600e5190f4e","Date":"2025-09-16","Close":24425.0,"High":24525.0,"Low":24125.0,"Open":24375.0,"Volume":0,"created_at":"2025-12-02 15:00:00","product_type":"C5TC","updated_at":"2025-12-02 15:00:00"},{"_id":"68fb7775a807e600e5190f4d","Date":"2025-09-15","Close":24125.0,"High":24712.5,"Low":24125.0,"Open":24500.0,"Volume":0,"created_at":"2025-12-02 15:00:00","product_type":"C5TC","updated_at":"2025-12-02 15:00:00"},{"_id":"68fb7775a807e600e5190f4c","Date":"2025-09-12","Close":24425.0,"High":24425.0,"Low":24025.0,"Open":24025.0,"Volume":0,"created_at":"2025-12-02 15:00:00","product_type":"C5TC","updated_at":"2025-12-02 15:00:00"},{"_id":"68fb7775a807e600e5190f4b","Date":"2025-09-11","Close":24000.0,"High":24250.0,"Low":23950.0,"Open":24250.0,"Volume":0,"created_at":"2025-12-02 15:00:00","product_type":"C5TC","updated_at":"2025-12-02 15:00:00"},{"_id":"68fb7775a807e600e5190f4a","Date":"2025-09-10","Close":24075.0,"High":24750.0,"Low":24000.0,"Open":24500.0,"Volume":0,"created_at":"2025-12-02 15:00:00","product_type":"C5TC","updated_at":"2025-12-02 15:00:00"},{"_id":"68fb7775a807e600e5190f49","Date":"2025-09-09","Close":24475.0,"High":24750.0,"Low":24350.0,"Open":24750.0,"Volume":0,"created_at":"2025-12-02 15:00:00","product_type":"C5TC","updated_at":"2025-12-02 15:00:00"},{"_id":"68fb7775a807e600e5190f48","Date":"2025-09-08","Close":24175.0,"High":24625.0,"Low":23750.0,"Open":23750.0,"Volume":0,"created_at":"2025-12-02 15:00:00","product_type":"C5TC","updated_at":"2025-12-02 15:00:00"},{"_id":"68fb7775a807e600e5190f47","Date":"2025-09-05","Close":23950.0,"High":24075.0,"Low":23750.0,"Open":24075.0,"Volume":0,"created_at":"2025-12-02 15:00:00","product_type":"C5TC","updated_at":"2025-12-02 15:00:00"},{"_id":"68fb7775a807e600e5190f46","Date":"2025-09-04","Close":24000.0,"High":24550.0,"Low":24000.0,"Open":24250.0,"Volume":0,"created_at":"2025-12-02 15:00:00","product_type":"C5TC","updated_at":"2025-12-02 15:00:00"},{"_id":"68fb7775a807e600e5190f45","Date":"2025-09-03","Close":24000.0,"High":24000.0,"Low":23500.0,"Open":23650.0,"Volume":0,"created_at":"2025-12-02 15:00:00","product_type":"C5TC","updated_at":"2025-12-02 15:00:00"},{"_id":"68fb7775a807e600e5190f44","Date":"2025-09-02","Close":23550.0,"High":23875.0,"Low":23425.0,"Open":23625.0,"Volume":0,"created_at":"2025-12-02 15:00:00","product_type":"C5TC","updated_at":"2025-12-02 15:00:00"},{"_id":"68fb7775a807e600e5190f43","Date":"2025-09-01","Close":23875.0,"High":23975.0,"Low":23875.0,"Open":23975.0,"Volume":0,"created_at":"2025-12-02 15:00:00","product_type":"C5TC","updated_at":"2025-12-02 15:00:00"},{"_id":"68fb7775a807e600e5190f42","Date":"2025-08-29","Close":26500.0,"High":26500.0,"Low":26250.0,"Open":26500.0,"Volume":0,"created_at":"2025-11-28 12:00:00","product_type":"C5TC","updated_at":"2025-11-28 12:00:00"},{"_id":"68fb7775a807e600e5190f41","Date":"2025-08-28","Close":26500.0,"High":26500.0,"Low":25750.0,"Open":26450.0,"Volume":0,"created_at":"2025-11-28 12:00:00","product_type":"C5TC","updated_at":"2025-11-28 12:00:00"},{"_id":"68fb7775a807e600e5190f40","Date":"2025-08-27","Close":26450.0,"High":27300.0,"Low":26350.0,"Open":27300.0,"Volume":0,"created_at":"2025-11-28 12:00:00","product_type":"C5TC","updated_at":"2025-11-28 12:00:00"},{"_id":"68fb7775a807e600e5190f3f","Date":"2025-08-26","Close":27250.0,"High":27750.0,"Low":27250.0,"Open":27500.0,"Volume":0,"created_at":"2025-11-28 12:00:00","product_type":"C5TC","updated_at":"2025-11-28 12:00:00"},{"_id":"68fb7775a807e600e5190f3e","Date":"2025-08-22","Close":25000.0,"High":25000.0,"Low":24250.0,"Open":24250.0,"Volume":0,"created_at":"2025-12-02 15:00:00","product_type":"C5TC","updated_at":"2025-12-02 15:00:00"},{"_id":"68fb7775a807e600e5190f3d","Date":"2025-08-21","Close":24000.0,"High":24000.0,"Low":23750.0,"Open":23750.0,"Volume":0,"created_at":"2025-12-02 15:00:00","product_type":"C5TC","updated_at":"2025-12-02 15:00:00"},{"_id":"68fb7775a807e600e5190f3c","Date":"2025-08-20","Close":23625.0,"High":24250.0,"Low":23500.0,"Open":23650.0,"Volume":0,"created_at":"2025-12-02 15:00:00","product_type":"C5TC","updated_at":"2025-12-02 15:00:00"},{"_id":"68fb7775a807e600e5190f3b","Date":"2025-08-19","Close":23750.0,"High":24125.0,"Low":23750.0,"Open":24125.0,"Volume":0,"created_at":"2025-12-02 15:00:00","product_type":"C5TC","updated_at":"2025-12-02 15:00:00"},{"_id":"68fb7775a807e600e5190f3a","Date":"2025-08-18","Close":24250.0,"High":24250.0,"Low":24050.0,"Open":24250.0,"Volume":0,"created_at":"2025-12-02 15:00:00","product_type":"C5TC","updated_at":"2025-12-02 15:00:00"},{"_id":"68fb7775a807e600e5190f39","Date":"2025-08-15","Close":24500.0,"High":24750.0,"Low":24500.0,"Open":24750.0,"Volume":0,"created_at":"2025-12-02 15:00:00","product_type":"C5TC","updated_at":"2025-12-02 15:00:00"},{"_id":"68fb7775a807e600e5190f38","Date":"2025-08-14","Close":25050.0,"High":25050.0,"Low":24250.0,"Open":25000.0,"Volume":0,"created_at":"2025-12-02 15:00:00","product_type":"C5TC","updated_at":"2025-12-02 15:00:00"},{"_id":"68fb7775a807e600e5190f37","Date":"2025-08-13","Close":24875.0,"High":25050.0,"Low":24750.0,"Open":24750.0,"Volume":0,"created_at":"2025-12-02 15:00:00","product_type":"C5TC","updated_at":"2025-12-02 15:00:00"},{"_id":"68fb7775a807e600e5190f36","Date":"2025-08-12","Close":24675.0,"High":24675.0,"Low":24000.0,"Open":24000.0,"Volume":0,"created_at":"2025-12-02 15:00:00","product_type":"C5TC","updated_at":"2025-12-02 15:00:00"},{"_id":"68fb7775a807e600e5190f35","Date":"2025-08-11","Close":23825.0,"High":24000.0,"Low":23250.0,"Open":23750.0,"Volume":0,"created_at":"2025-12-02 15:00:00","product_type":"C5TC","updated_at":"2025-12-02 15:00:00"},{"_id":"68fb7775a807e600e5190f34","Date":"2025-08-08","Close":26250.0,"High":26250.0,"Low":26000.0,"Open":26000.0,"Volume":0,"created_at":"2025-11-28 12:00:00","product_type":"C5TC","updated_at":"2025-11-28 12:00:00"},{"_id":"68fb7775a807e600e5190f33","Date":"2025-08-07","Close":23500.0,"High":23500.0,"Low":23125.0,"Open":23125.0,"Volume":0,"created_at":"2025-12-02 15:00:00","product_type":"C5TC","updated_at":"2025-12-02 15:00:00"},{"_id":"68fb7775a807e600e5190f32","Date":"2025-08-06","Close":23250.0,"High":23500.0,"Low":23250.0,"Open":23250.0,"Volume":0,"created_at":"2025-12-02 15:00:00","product_type":"C5TC","updated_at":"2025-12-02 15:00:00"},{"_id":"68fb7775a807e600e5190f31","Date":"2025-08-05","Close":23075.0,"High":23300.0,"Low":22350.0,"Open":22375.0,"Volume":0,"created_at":"2025-12-02 15:00:00","product_type":"C5TC","updated_at":"2025-12-02 15:00:00"}],"pagination":{"page":1,"page_size":85,"total_count":111,"total_pages":2,"has_next":true,"has_prev":false}}}